MVM_Vivado/MVM_Vivado.sim/sim_1/behav/xsim/dump.vcd
$date
   Tue Jun 11 15:44:33 2024
$end

$version
  2023.2
  $dumpfile ("dump.vcd") 
$end

$timescale
  1ps
$end

$scope module mvm_uart_system_tb $end
$var reg 1 ! clk $end
$var reg 1 " rstn $end
$var reg 1 # rx $end
$var reg 1 $ tx $end
$var reg 128 % s_data [127:0] $end
$var reg 10 & s_packet [9:0] $end
$var reg 32 ' queue_kx $end
$var reg 32 ( idx [31:0] $end
$var reg 32 ) x_out [31:0] $end
$var reg 96 * k_out [95:0] $end
$var reg 32 + k_row_out [31:0] $end
$var reg 96 , exp_data [95:0] $end
$var reg 96 - m_data [95:0] $end
$var reg 8 . m_packet [7:0] $end
$var reg 32 / tx_bits [31:0] $end
$var reg 32 0 rx_bits [31:0] $end
$scope module dut $end
$var wire 1 1 clk $end
$var wire 1 2 rstn $end
$var wire 1 3 rx $end
$var wire 1 4 tx $end
$var reg 1 5 s_valid $end
$var reg 1 6 m_valid $end
$var reg 1 7 s_ready $end
$var reg 1 8 m_ready $end
$var reg 128 9 s_data_kx [127:0] $end
$var reg 54 : m_data_y [53:0] $end
$var reg 96 ; o_flat [95:0] $end
$scope module UART_RX $end
$var wire 1 1 clk $end
$var wire 1 2 rstn $end
$var wire 1 3 rx $end
$var reg 1 5 m_valid $end
$var reg 128 9 m_data [127:0] $end
$var reg 2 < c_clocks [1:0] $end
$var reg 3 = c_bits [2:0] $end
$var reg 4 > c_words [3:0] $end
$var reg 32 ? state $end
$upscope $end
$scope module AXIS_MVM $end
$var wire 1 1 clk $end
$var wire 1 2 rstn $end
$var wire 1 @ s_axis_kx_tready $end
$var wire 1 A s_axis_kx_tvalid $end
$var wire 128 B s_axis_kx_tdata [127:0] $end
$var wire 1 C m_axis_y_tready $end
$var wire 1 D m_axis_y_tvalid $end
$var wire 54 E m_axis_y_tdata [53:0] $end
$var reg 96 F k [95:0] $end
$var reg 32 G x [31:0] $end
$var reg 54 H i_data [53:0] $end
$var reg 1 I i_ready $end
$var reg 2 J shift [1:0] $end
$var reg 1 K i_valid $end
$scope module MATVEC $end
$var wire 1 1 clk $end
$var wire 1 L cen $end
$var wire 96 M k [95:0] $end
$var wire 32 N x [31:0] $end
$var reg 54 H y [53:0] $end
$var wire 32 O x_pad [31:0] $end
$var wire 96 P k_pad [95:0] $end
$upscope $end
$scope module SKID $end
$var wire 1 1 clk $end
$var wire 1 2 rstn $end
$var wire 1 Q s_valid $end
$var wire 1 C m_ready $end
$var wire 54 R s_data [53:0] $end
$var reg 54 S m_data [53:0] $end
$var reg 1 T m_valid $end
$var reg 1 I s_ready $end
$var reg 32 U state $end
$var reg 32 V state_next $end
$var reg 1 W b_valid $end
$var reg 54 X b_data [53:0] $end
$var wire 54 Y m_data_next [53:0] $end
$var wire 1 Z m_valid_next $end
$var wire 1 [ buffer_en $end
$var wire 1 \ m_en $end
$upscope $end
$upscope $end
$scope module UART_TX $end
$var wire 1 1 clk $end
$var wire 1 2 rstn $end
$var wire 1 ] s_valid $end
$var wire 96 ^ s_data [95:0] $end
$var reg 1 _ tx $end
$var reg 1 8 s_ready $end
$var reg 156 ` s_packets [155:0] $end
$var reg 156 a m_packets [155:0] $end
$var reg 8 b c_pulses [7:0] $end
$var reg 2 c c_clocks [1:0] $end
$var reg 32 d state $end
$upscope $end
$upscope $end
$scope begin Block50_30 $end
$var reg 32 e c [31:0] $end
$upscope $end
$scope begin Block53_31 $end
$var reg 32 f r [31:0] $end
$scope begin Block54_32 $end
$var reg 32 g c [31:0] $end
$upscope $end
$upscope $end
$scope begin Block60_33 $end
$var reg 32 h iw [31:0] $end
$scope begin Block65_34 $end
$var reg 32 i ib [31:0] $end
$upscope $end
$upscope $end
$scope begin Block87_36 $end
$var reg 32 j iw [31:0] $end
$scope begin Block92_37 $end
$var reg 32 k ib [31:0] $end
$upscope $end
$scope begin Block98_38 $end
$var reg 32 l ib [31:0] $end
$upscope $end
$upscope $end
$scope begin Block108_39 $end
$var reg 32 m r [31:0] $end
$scope begin Block109_40 $end
$var reg 32 n c [31:0] $end
$upscope $end
$upscope $end
$scope begin Block128_42 $end
$var reg 32 o n [31:0] $end
$upscope $end
$scope begin Block136_44 $end
$var reg 32 p n [31:0] $end
$upscope $end
$upscope $end
$enddefinitions $end

#0
$dumpvars
0!
0"
1#
1$
bx %
bx &
b100001101111100000000000011000 '
b0 (
bx )
bx *
bx +
bx ,
bx -
bx .
b0 /
b0 0
01
02
13
14
05
x6
x7
18
b0 9
bx :
bx ;
b0 <
b0 =
b0 >
b0 ?
x@
0A
b0 B
1C
xD
bx E
b0 F
b0 G
bx H
xI
b0 J
0K
xL
b0 M
b0 N
b0 O
b0 P
0Q
bx R
bx S
xT
b0 U
b1 V
xW
bx X
bx Y
xZ
0[
x\
x]
bx ^
1_
b1111xxxxxxxx01111xxxxxxxx01111xxxxxxxx01111xxxxxxxx01111xxxxxxxx01111xxxxxxxx01111xxxxxxxx01111xxxxxxxx01111xxxxxxxx01111xxxxxxxx01111xxxxxxxx01111xxxxxxxx0 `
b111111111111111111111111111111111111111111111111111111111111111111111111111111111111111111111111111111111111111111111111111111111111111111111111111111111111 a
b0 b
b0 c
b0 d
b0 e
b0 f
b0 g
b0 h
b0 i
b0 j
b0 k
b0 l
b0 m
b0 n
b0 o
b0 p
$end

#5000
1!
11
06
17
1@
0D
1I
1L
0T
b1 U
0W
0Z
0\
0]

#10000
0!
01

#15000
1!
11

#16000
1"
b101000001110000011000001100000010110000001000000001000011110000000100000011000001010000011100001101000011000000101100001010 %
b1000010100 &
b10000 (
12
b100 e
b11 f
b100 g

#20000
0!
01

#25000
1!
11

#30000
0!
01

#35000
1!
11
b0 H
b0 R
b0 Y

#40000
0!
01

#45000
1!
11

#50000
0!
01

#55000
1!
11

#56000
0#
b1 0
03

#60000
0!
01

#65000
1!
11
b1 ?

#70000
0!
01

#75000
1!
11
b1 <

#80000
0!
01

#85000
1!
11
b0 <
b10 ?

#90000
0!
01

#95000
1!
b10 0
11
b1 <
b1 i
b1 p

#100000
0!
01

#105000
1!
11
b10 <

#110000
0!
01

#115000
1!
11
b11 <

#120000
0!
01

#125000
1!
11
b0 <
b1 =

#130000
0!
01

#135000
1!
b11 0
11
b1 <
b10 i
b10 p

#136000
1#
13

#140000
0!
01

#145000
1!
11
b10 <

#150000
0!
01

#155000
1!
11
b11 <

#160000
0!
01

#165000
1!
11
b10000000000000000000000000000000000000000000000000000000000000000000000000000000000000000000000000000000000000000000000000000000 9
b0 <
b10 =
b10000000000000000000000000000000000000000000000000000000000000000000000000000000000000000000000000000000000000000000000000000000 B
b100000000000000000000000000000000000000000000000000000000000000000000000000000000000000000000000 F
b100000000000000000000000000000000000000000000000000000000000000000000000000000000000000000000000 M
b100000000000000000000000000000000000000000000000000000000000000000000000000000000000000000000000 P

#170000
0!
01

#175000
1!
b100 0
11
b1 <
b11 i
b11 p

#176000
0#
03

#180000
0!
01

#185000
1!
11
b10 <

#190000
0!
01

#195000
1!
11
b11 <

#200000
0!
01

#205000
1!
11
b1000000000000000000000000000000000000000000000000000000000000000000000000000000000000000000000000000000000000000000000000000000 9
b0 <
b11 =
b1000000000000000000000000000000000000000000000000000000000000000000000000000000000000000000000000000000000000000000000000000000 B
b10000000000000000000000000000000000000000000000000000000000000000000000000000000000000000000000 F
b10000000000000000000000000000000000000000000000000000000000000000000000000000000000000000000000 M
b10000000000000000000000000000000000000000000000000000000000000000000000000000000000000000000000 P

#210000
0!
01

#215000
1!
b101 0
11
b1 <
b100 i
b100 p

#216000
1#
13

#220000
0!
01

#225000
1!
11
b10 <

#230000
0!
01

#235000
1!
11
b11 <

#240000
0!
01

#245000
1!
11
b10100000000000000000000000000000000000000000000000000000000000000000000000000000000000000000000000000000000000000000000000000000 9
b0 <
b100 =
b10100000000000000000000000000000000000000000000000000000000000000000000000000000000000000000000000000000000000000000000000000000 B
b101000000000000000000000000000000000000000000000000000000000000000000000000000000000000000000000 F
b101000000000000000000000000000000000000000000000000000000000000000000000000000000000000000000000 M
b101000000000000000000000000000000000000000000000000000000000000000000000000000000000000000000000 P

#250000
0!
01

#255000
1!
b110 0
11
b1 <
b101 i
b101 p

#256000
0#
03

#260000
0!
01

#265000
1!
11
b10 <

#270000
0!
01

#275000
1!
11
b11 <

#280000
0!
01

#285000
1!
11
b1010000000000000000000000000000000000000000000000000000000000000000000000000000000000000000000000000000000000000000000000000000 9
b0 <
b101 =
b1010000000000000000000000000000000000000000000000000000000000000000000000000000000000000000000000000000000000000000000000000000 B
b10100000000000000000000000000000000000000000000000000000000000000000000000000000000000000000000 F
b10100000000000000000000000000000000000000000000000000000000000000000000000000000000000000000000 M
b10100000000000000000000000000000000000000000000000000000000000000000000000000000000000000000000 P

#290000
0!
01

#295000
1!
b111 0
11
b1 <
b110 i
b110 p

#300000
0!
01

#305000
1!
11
b10 <

#310000
0!
01

#315000
1!
11
b11 <

#320000
0!
01

#325000
1!
11
b101000000000000000000000000000000000000000000000000000000000000000000000000000000000000000000000000000000000000000000000000000 9
b0 <
b110 =
b101000000000000000000000000000000000000000000000000000000000000000000000000000000000000000000000000000000000000000000000000000 B
b1010000000000000000000000000000000000000000000000000000000000000000000000000000000000000000000 F
b1010000000000000000000000000000000000000000000000000000000000000000000000000000000000000000000 M
b1010000000000000000000000000000000000000000000000000000000000000000000000000000000000000000000 P

#330000
0!
01

#335000
1!
b1000 0
11
b1 <
b111 i
b111 p

#340000
0!
01

#345000
1!
11
b10 <

#350000
0!
01

#355000
1!
11
b11 <

#360000
0!
01

#365000
1!
11
b10100000000000000000000000000000000000000000000000000000000000000000000000000000000000000000000000000000000000000000000000000 9
b0 <
b111 =
b10100000000000000000000000000000000000000000000000000000000000000000000000000000000000000000000000000000000000000000000000000 B
b101000000000000000000000000000000000000000000000000000000000000000000000000000000000000000000 F
b101000000000000000000000000000000000000000000000000000000000000000000000000000000000000000000 M
b101000000000000000000000000000000000000000000000000000000000000000000000000000000000000000000 P

#370000
0!
01

#375000
1!
b1001 0
11
b1 <
b1000 i
b1000 p

#380000
0!
01

#385000
1!
11
b10 <

#390000
0!
01

#395000
1!
11
b11 <

#400000
0!
01

#405000
1!
11
b1010000000000000000000000000000000000000000000000000000000000000000000000000000000000000000000000000000000000000000000000000 9
b0 <
b0 =
b1 >
b11 ?
b1010000000000000000000000000000000000000000000000000000000000000000000000000000000000000000000000000000000000000000000000000 B
b10100000000000000000000000000000000000000000000000000000000000000000000000000000000000000000 F
b10100000000000000000000000000000000000000000000000000000000000000000000000000000000000000000 M
b10100000000000000000000000000000000000000000000000000000000000000000000000000000000000000000 P

#410000
0!
01

#415000
1!
b1010 0
11
b1 <
b1001 i
b1001 p

#416000
1#
13

#420000
0!
01

#425000
1!
11
b10 <

#430000
0!
01

#435000
1!
11
b11 <

#440000
0!
01

#445000
1!
11
b0 <
b0 ?

#450000
0!
01

#455000
1!
b1000010110 &
b0 0
11
b1 h
b1010 i
b1010 p

#460000
0!
01

#465000
1!
11

#470000
0!
01

#475000
1!
11

#480000
0!
01

#485000
1!
11

#490000
0!
01

#495000
1!
11

#500000
0!
01

#505000
1!
11

#510000
0!
01

#515000
1!
11
b0 i

#516000
0#
b1 0
03
b0 p

#520000
0!
01

#525000
1!
11
b1 ?

#530000
0!
01

#535000
1!
11
b1 <

#540000
0!
01

#545000
1!
11
b0 <
b10 ?

#550000
0!
01

#555000
1!
b10 0
11
b1 <
b1 i
b1 p

#556000
1#
13

#560000
0!
01

#565000
1!
11
b10 <

#570000
0!
01

#575000
1!
11
b11 <

#580000
0!
01

#585000
1!
11
b10000101000000000000000000000000000000000000000000000000000000000000000000000000000000000000000000000000000000000000000000000000 9
b0 <
b1 =
b10000101000000000000000000000000000000000000000000000000000000000000000000000000000000000000000000000000000000000000000000000000 B
b100001010000000000000000000000000000000000000000000000000000000000000000000000000000000000000000 F
b100001010000000000000000000000000000000000000000000000000000000000000000000000000000000000000000 M
b100001010000000000000000000000000000000000000000000000000000000000000000000000000000000000000000 P

#590000
0!
01

#595000
1!
b11 0
11
b1 <
b10 i
b10 p

#600000
0!
01

#605000
1!
11
b10 <

#610000
0!
01

#615000
1!
11
b11 <

#620000
0!
01

#625000
1!
11
b11000010100000000000000000000000000000000000000000000000000000000000000000000000000000000000000000000000000000000000000000000000 9
b0 <
b10 =
b11000010100000000000000000000000000000000000000000000000000000000000000000000000000000000000000000000000000000000000000000000000 B
b110000101000000000000000000000000000000000000000000000000000000000000000000000000000000000000000 F
b110000101000000000000000000000000000000000000000000000000000000000000000000000000000000000000000 M
b110000101000000000000000000000000000000000000000000000000000000000000000000000000000000000000000 P

#630000
0!
01

#635000
1!
b100 0
11
b1 <
b11 i
b11 p

#636000
0#
03

#640000
0!
01

#645000
1!
11
b10 <

#650000
0!
01

#655000
1!
11
b11 <

#660000
0!
01

#665000
1!
11
b1100001010000000000000000000000000000000000000000000000000000000000000000000000000000000000000000000000000000000000000000000000 9
b0 <
b11 =
b1100001010000000000000000000000000000000000000000000000000000000000000000000000000000000000000000000000000000000000000000000000 B
b11000010100000000000000000000000000000000000000000000000000000000000000000000000000000000000000 F
b11000010100000000000000000000000000000000000000000000000000000000000000000000000000000000000000 M
b11000010100000000000000000000000000000000000000000000000000000000000000000000000000000000000000 P

#670000
0!
01

#675000
1!
b101 0
11
b1 <
b100 i
b100 p

#676000
1#
13

#680000
0!
01

#685000
1!
11
b10 <

#690000
0!
01

#695000
1!
11
b11 <

#700000
0!
01

#705000
1!
11
b10110000101000000000000000000000000000000000000000000000000000000000000000000000000000000000000000000000000000000000000000000000 9
b0 <
b100 =
b10110000101000000000000000000000000000000000000000000000000000000000000000000000000000000000000000000000000000000000000000000000 B
b101100001010000000000000000000000000000000000000000000000000000000000000000000000000000000000000 F
b101100001010000000000000000000000000000000000000000000000000000000000000000000000000000000000000 M
b101100001010000000000000000000000000000000000000000000000000000000000000000000000000000000000000 P

#710000
0!
01

#715000
1!
b110 0
11
b1 <
b101 i
b101 p

#716000
0#
03

#720000
0!
01

#725000
1!
11
b10 <

#730000
0!
01

#735000
1!
11
b11 <

#740000
0!
01

#745000
1!
11
b1011000010100000000000000000000000000000000000000000000000000000000000000000000000000000000000000000000000000000000000000000000 9
b0 <
b101 =
b1011000010100000000000000000000000000000000000000000000000000000000000000000000000000000000000000000000000000000000000000000000 B
b10110000101000000000000000000000000000000000000000000000000000000000000000000000000000000000000 F
b10110000101000000000000000000000000000000000000000000000000000000000000000000000000000000000000 M
b10110000101000000000000000000000000000000000000000000000000000000000000000000000000000000000000 P

#750000
0!
01

#755000
1!
b111 0
11
b1 <
b110 i
b110 p

#760000
0!
01

#765000
1!
11
b10 <

#770000
0!
01

#775000
1!
11
b11 <

#780000
0!
01

#785000
1!
11
b101100001010000000000000000000000000000000000000000000000000000000000000000000000000000000000000000000000000000000000000000000 9
b0 <
b110 =
b101100001010000000000000000000000000000000000000000000000000000000000000000000000000000000000000000000000000000000000000000000 B
b1011000010100000000000000000000000000000000000000000000000000000000000000000000000000000000000 F
b1011000010100000000000000000000000000000000000000000000000000000000000000000000000000000000000 M
b1011000010100000000000000000000000000000000000000000000000000000000000000000000000000000000000 P

#790000
0!
01

#795000
1!
b1000 0
11
b1 <
b111 i
b111 p

#800000
0!
01

#805000
1!
11
b10 <

#810000
0!
01

#815000
1!
11
b11 <

#820000
0!
01

#825000
1!
11
b10110000101000000000000000000000000000000000000000000000000000000000000000000000000000000000000000000000000000000000000000000 9
b0 <
b111 =
b10110000101000000000000000000000000000000000000000000000000000000000000000000000000000000000000000000000000000000000000000000 B
b101100001010000000000000000000000000000000000000000000000000000000000000000000000000000000000 F
b101100001010000000000000000000000000000000000000000000000000000000000000000000000000000000000 M
b101100001010000000000000000000000000000000000000000000000000000000000000000000000000000000000 P

#830000
0!
01

#835000
1!
b1001 0
11
b1 <
b1000 i
b1000 p

#840000
0!
01

#845000
1!
11
b10 <

#850000
0!
01

#855000
1!
11
b11 <

#860000
0!
01

#865000
1!
11
b1011000010100000000000000000000000000000000000000000000000000000000000000000000000000000000000000000000000000000000000000000 9
b0 <
b0 =
b10 >
b11 ?
b1011000010100000000000000000000000000000000000000000000000000000000000000000000000000000000000000000000000000000000000000000 B
b10110000101000000000000000000000000000000000000000000000000000000000000000000000000000000000 F
b10110000101000000000000000000000000000000000000000000000000000000000000000000000000000000000 M
b10110000101000000000000000000000000000000000000000000000000000000000000000000000000000000000 P

#870000
0!
01

#875000
1!
b1010 0
11
b1 <
b1001 i
b1001 p

#876000
1#
13

#880000
0!
01

#885000
1!
11
b10 <

#890000
0!
01

#895000
1!
11
b11 <

#900000
0!
01

#905000
1!
11
b0 <
b0 ?

#910000
0!
01

#915000
1!
b1000011000 &
b0 0
11
b10 h
b1010 i
b1010 p

#920000
0!
01

#925000
1!
11

#930000
0!
01

#935000
1!
11

#940000
0!
01

#945000
1!
11

#950000
0!
01

#955000
1!
11

#960000
0!
01

#965000
1!
11

#970000
0!
01

#975000
1!
11

#980000
0!
01

#985000
1!
11
b0 i

#986000
0#
b1 0
03
b0 p

#990000
0!
01

#995000
1!
11
b1 ?

#1000000
0!
01

#1005000
1!
11
b1 <

#1010000
0!
01

#1015000
1!
11
b0 <
b10 ?

#1020000
0!
01

#1025000
1!
b10 0
11
b1 <
b1 i
b1 p

#1030000
0!
01

#1035000
1!
11
b10 <

#1040000
0!
01

#1045000
1!
11
b11 <

#1050000
0!
01

#1055000
1!
11
b101100001010000000000000000000000000000000000000000000000000000000000000000000000000000000000000000000000000000000000000000 9
b0 <
b1 =
b101100001010000000000000000000000000000000000000000000000000000000000000000000000000000000000000000000000000000000000000000 B
b1011000010100000000000000000000000000000000000000000000000000000000000000000000000000000000 F
b1011000010100000000000000000000000000000000000000000000000000000000000000000000000000000000 M
b1011000010100000000000000000000000000000000000000000000000000000000000000000000000000000000 P

#1060000
0!
01

#1065000
1!
b11 0
11
b1 <
b10 i
b10 p

#1070000
0!
01

#1075000
1!
11
b10 <

#1080000
0!
01

#1085000
1!
11
b11 <

#1090000
0!
01

#1095000
1!
11
b10110000101000000000000000000000000000000000000000000000000000000000000000000000000000000000000000000000000000000000000000 9
b0 <
b10 =
b10110000101000000000000000000000000000000000000000000000000000000000000000000000000000000000000000000000000000000000000000 B
b101100001010000000000000000000000000000000000000000000000000000000000000000000000000000000 F
b101100001010000000000000000000000000000000000000000000000000000000000000000000000000000000 M
b101100001010000000000000000000000000000000000000000000000000000000000000000000000000000000 P

#1100000
0!
01

#1105000
1!
b100 0
11
b1 <
b11 i
b11 p

#1106000
1#
13

#1110000
0!
01

#1115000
1!
11
b10 <

#1120000
0!
01

#1125000
1!
11
b11 <

#1130000
0!
01

#1135000
1!
11
b10000001011000010100000000000000000000000000000000000000000000000000000000000000000000000000000000000000000000000000000000000000 9
b0 <
b11 =
b10000001011000010100000000000000000000000000000000000000000000000000000000000000000000000000000000000000000000000000000000000000 B
b100000010110000101000000000000000000000000000000000000000000000000000000000000000000000000000000 F
b100000010110000101000000000000000000000000000000000000000000000000000000000000000000000000000000 M
b100000010110000101000000000000000000000000000000000000000000000000000000000000000000000000000000 P

#1140000
0!
01

#1145000
1!
b101 0
11
b1 <
b100 i
b100 p

#1150000
0!
01

#1155000
1!
11
b10 <

#1160000
0!
01

#1165000
1!
11
b11 <

#1170000
0!
01

#1175000
1!
11
b11000000101100001010000000000000000000000000000000000000000000000000000000000000000000000000000000000000000000000000000000000000 9
b0 <
b100 =
b11000000101100001010000000000000000000000000000000000000000000000000000000000000000000000000000000000000000000000000000000000000 B
b110000001011000010100000000000000000000000000000000000000000000000000000000000000000000000000000 F
b110000001011000010100000000000000000000000000000000000000000000000000000000000000000000000000000 M
b110000001011000010100000000000000000000000000000000000000000000000000000000000000000000000000000 P

#1180000
0!
01

#1185000
1!
b110 0
11
b1 <
b101 i
b101 p

#1186000
0#
03

#1190000
0!
01

#1195000
1!
11
b10 <

#1200000
0!
01

#1205000
1!
11
b11 <

#1210000
0!
01

#1215000
1!
11
b1100000010110000101000000000000000000000000000000000000000000000000000000000000000000000000000000000000000000000000000000000000 9
b0 <
b101 =
b1100000010110000101000000000000000000000000000000000000000000000000000000000000000000000000000000000000000000000000000000000000 B
b11000000101100001010000000000000000000000000000000000000000000000000000000000000000000000000000 F
b11000000101100001010000000000000000000000000000000000000000000000000000000000000000000000000000 M
b11000000101100001010000000000000000000000000000000000000000000000000000000000000000000000000000 P

#1220000
0!
01

#1225000
1!
b111 0
11
b1 <
b110 i
b110 p

#1230000
0!
01

#1235000
1!
11
b10 <

#1240000
0!
01

#1245000
1!
11
b11 <

#1250000
0!
01

#1255000
1!
11
b110000001011000010100000000000000000000000000000000000000000000000000000000000000000000000000000000000000000000000000000000000 9
b0 <
b110 =
b110000001011000010100000000000000000000000000000000000000000000000000000000000000000000000000000000000000000000000000000000000 B
b1100000010110000101000000000000000000000000000000000000000000000000000000000000000000000000000 F
b1100000010110000101000000000000000000000000000000000000000000000000000000000000000000000000000 M
b1100000010110000101000000000000000000000000000000000000000000000000000000000000000000000000000 P

#1260000
0!
01

#1265000
1!
b1000 0
11
b1 <
b111 i
b111 p

#1270000
0!
01

#1275000
1!
11
b10 <

#1280000
0!
01

#1285000
1!
11
b11 <

#1290000
0!
01

#1295000
1!
11
b11000000101100001010000000000000000000000000000000000000000000000000000000000000000000000000000000000000000000000000000000000 9
b0 <
b111 =
b11000000101100001010000000000000000000000000000000000000000000000000000000000000000000000000000000000000000000000000000000000 B
b110000001011000010100000000000000000000000000000000000000000000000000000000000000000000000000 F
b110000001011000010100000000000000000000000000000000000000000000000000000000000000000000000000 M
b110000001011000010100000000000000000000000000000000000000000000000000000000000000000000000000 P

#1300000
0!
01

#1305000
1!
b1001 0
11
b1 <
b1000 i
b1000 p

#1310000
0!
01

#1315000
1!
11
b10 <

#1320000
0!
01

#1325000
1!
11
b11 <

#1330000
0!
01

#1335000
1!
11
b1100000010110000101000000000000000000000000000000000000000000000000000000000000000000000000000000000000000000000000000000000 9
b0 <
b0 =
b11 >
b11 ?
b1100000010110000101000000000000000000000000000000000000000000000000000000000000000000000000000000000000000000000000000000000 B
b11000000101100001010000000000000000000000000000000000000000000000000000000000000000000000000 F
b11000000101100001010000000000000000000000000000000000000000000000000000000000000000000000000 M
b11000000101100001010000000000000000000000000000000000000000000000000000000000000000000000000 P

#1340000
0!
01

#1345000
1!
b1010 0
11
b1 <
b1001 i
b1001 p

#1346000
1#
13

#1350000
0!
01

#1355000
1!
11
b10 <

#1360000
0!
01

#1365000
1!
11
b11 <

#1370000
0!
01

#1375000
1!
11
b0 <
b0 ?

#1380000
0!
01

#1385000
1!
b1000011010 &
b0 0
11
b11 h
b1010 i
b1010 p

#1390000
0!
01

#1395000
1!
11

#1400000
0!
01

#1405000
1!
11

#1410000
0!
01

#1415000
1!
11
b0 i

#1416000
0#
b1 0
03
b0 p

#1420000
0!
01

#1425000
1!
11
b1 ?

#1430000
0!
01

#1435000
1!
11
b1 <

#1440000
0!
01

#1445000
1!
11
b0 <
b10 ?

#1450000
0!
01

#1455000
1!
b10 0
11
b1 <
b1 i
b1 p

#1456000
1#
13

#1460000
0!
01

#1465000
1!
11
b10 <

#1470000
0!
01

#1475000
1!
11
b11 <

#1480000
0!
01

#1485000
1!
11
b10000110000001011000010100000000000000000000000000000000000000000000000000000000000000000000000000000000000000000000000000000000 9
b0 <
b1 =
b10000110000001011000010100000000000000000000000000000000000000000000000000000000000000000000000000000000000000000000000000000000 B
b100001100000010110000101000000000000000000000000000000000000000000000000000000000000000000000000 F
b100001100000010110000101000000000000000000000000000000000000000000000000000000000000000000000000 M
b100001100000010110000101000000000000000000000000000000000000000000000000000000000000000000000000 P

#1490000
0!
01

#1495000
1!
b11 0
11
b1 <
b10 i
b10 p

#1496000
0#
03

#1500000
0!
01

#1505000
1!
11
b10 <

#1510000
0!
01

#1515000
1!
11
b11 <

#1520000
0!
01

#1525000
1!
11
b1000011000000101100001010000000000000000000000000000000000000000000000000000000000000000000000000000000000000000000000000000000 9
b0 <
b10 =
b1000011000000101100001010000000000000000000000000000000000000000000000000000000000000000000000000000000000000000000000000000000 B
b10000110000001011000010100000000000000000000000000000000000000000000000000000000000000000000000 F
b10000110000001011000010100000000000000000000000000000000000000000000000000000000000000000000000 M
b10000110000001011000010100000000000000000000000000000000000000000000000000000000000000000000000 P

#1530000
0!
01

#1535000
1!
b100 0
11
b1 <
b11 i
b11 p

#1536000
1#
13

#1540000
0!
01

#1545000
1!
11
b10 <

#1550000
0!
01

#1555000
1!
11
b11 <

#1560000
0!
01

#1565000
1!
11
b10100001100000010110000101000000000000000000000000000000000000000000000000000000000000000000000000000000000000000000000000000000 9
b0 <
b11 =
b10100001100000010110000101000000000000000000000000000000000000000000000000000000000000000000000000000000000000000000000000000000 B
b101000011000000101100001010000000000000000000000000000000000000000000000000000000000000000000000 F
b101000011000000101100001010000000000000000000000000000000000000000000000000000000000000000000000 M
b101000011000000101100001010000000000000000000000000000000000000000000000000000000000000000000000 P

#1570000
0!
01

#1575000
1!
b101 0
11
b1 <
b100 i
b100 p

#1580000
0!
01

#1585000
1!
11
b10 <

#1590000
0!
01

#1595000
1!
11
b11 <

#1600000
0!
01

#1605000
1!
11
b11010000110000001011000010100000000000000000000000000000000000000000000000000000000000000000000000000000000000000000000000000000 9
b0 <
b100 =
b11010000110000001011000010100000000000000000000000000000000000000000000000000000000000000000000000000000000000000000000000000000 B
b110100001100000010110000101000000000000000000000000000000000000000000000000000000000000000000000 F
b110100001100000010110000101000000000000000000000000000000000000000000000000000000000000000000000 M
b110100001100000010110000101000000000000000000000000000000000000000000000000000000000000000000000 P

#1610000
0!
01

#1615000
1!
b110 0
11
b1 <
b101 i
b101 p

#1616000
0#
03

#1620000
0!
01

#1625000
1!
11
b10 <

#1630000
0!
01

#1635000
1!
11
b11 <

#1640000
0!
01

#1645000
1!
11
b1101000011000000101100001010000000000000000000000000000000000000000000000000000000000000000000000000000000000000000000000000000 9
b0 <
b101 =
b1101000011000000101100001010000000000000000000000000000000000000000000000000000000000000000000000000000000000000000000000000000 B
b11010000110000001011000010100000000000000000000000000000000000000000000000000000000000000000000 F
b11010000110000001011000010100000000000000000000000000000000000000000000000000000000000000000000 M
b11010000110000001011000010100000000000000000000000000000000000000000000000000000000000000000000 P

#1650000
0!
01

#1655000
1!
b111 0
11
b1 <
b110 i
b110 p

#1660000
0!
01

#1665000
1!
11
b10 <

#1670000
0!
01

#1675000
1!
11
b11 <

#1680000
0!
01

#1685000
1!
11
b110100001100000010110000101000000000000000000000000000000000000000000000000000000000000000000000000000000000000000000000000000 9
b0 <
b110 =
b110100001100000010110000101000000000000000000000000000000000000000000000000000000000000000000000000000000000000000000000000000 B
b1101000011000000101100001010000000000000000000000000000000000000000000000000000000000000000000 F
b1101000011000000101100001010000000000000000000000000000000000000000000000000000000000000000000 M
b1101000011000000101100001010000000000000000000000000000000000000000000000000000000000000000000 P

#1690000
0!
01

#1695000
1!
b1000 0
11
b1 <
b111 i
b111 p

#1700000
0!
01

#1705000
1!
11
b10 <

#1710000
0!
01

#1715000
1!
11
b11 <

#1720000
0!
01

#1725000
1!
11
b11010000110000001011000010100000000000000000000000000000000000000000000000000000000000000000000000000000000000000000000000000 9
b0 <
b111 =
b11010000110000001011000010100000000000000000000000000000000000000000000000000000000000000000000000000000000000000000000000000 B
b110100001100000010110000101000000000000000000000000000000000000000000000000000000000000000000 F
b110100001100000010110000101000000000000000000000000000000000000000000000000000000000000000000 M
b110100001100000010110000101000000000000000000000000000000000000000000000000000000000000000000 P

#1730000
0!
01

#1735000
1!
b1001 0
11
b1 <
b1000 i
b1000 p

#1740000
0!
01

#1745000
1!
11
b10 <

#1750000
0!
01

#1755000
1!
11
b11 <

#1760000
0!
01

#1765000
1!
11
b1101000011000000101100001010000000000000000000000000000000000000000000000000000000000000000000000000000000000000000000000000 9
b0 <
b0 =
b100 >
b11 ?
b1101000011000000101100001010000000000000000000000000000000000000000000000000000000000000000000000000000000000000000000000000 B
b11010000110000001011000010100000000000000000000000000000000000000000000000000000000000000000 F
b11010000110000001011000010100000000000000000000000000000000000000000000000000000000000000000 M
b11010000110000001011000010100000000000000000000000000000000000000000000000000000000000000000 P

#1770000
0!
01

#1775000
1!
b1010 0
11
b1 <
b1001 i
b1001 p

#1776000
1#
13

#1780000
0!
01

#1785000
1!
11
b10 <

#1790000
0!
01

#1795000
1!
11
b11 <

#1800000
0!
01

#1805000
1!
11
b0 <
b0 ?

#1810000
0!
01

#1815000
1!
b1000001110 &
b0 0
11
b100 h
b1010 i
b1010 p

#1820000
0!
01

#1825000
1!
11

#1830000
0!
01

#1835000
1!
11

#1840000
0!
01

#1845000
1!
11

#1850000
0!
01

#1855000
1!
11

#1860000
0!
01

#1865000
1!
11

#1870000
0!
01

#1875000
1!
11

#1880000
0!
01

#1885000
1!
11

#1890000
0!
01

#1895000
1!
11
b0 i

#1896000
0#
b1 0
03
b0 p

#1900000
0!
01

#1905000
1!
11
b1 ?

#1910000
0!
01

#1915000
1!
11
b1 <

#1920000
0!
01

#1925000
1!
11
b0 <
b10 ?

#1930000
0!
01

#1935000
1!
b10 0
11
b1 <
b1 i
b1 p

#1936000
1#
13

#1940000
0!
01

#1945000
1!
11
b10 <

#1950000
0!
01

#1955000
1!
11
b11 <

#1960000
0!
01

