MVM_Vivado/MVM_Vivado.sim/sim_1/behav/xsim/dump.vcd
$date
   Tue Jun 11 16:11:10 2024
$end

$version
  2023.2
  $dumpfile ("dump.vcd") 
$end

$timescale
  1ps
$end

$scope module mvm_uart_system_tb $end
$var reg 1 ! clk $end
$var reg 1 " rstn $end
$var reg 1 # rx $end
$var reg 1 $ tx $end
$var reg 576 % s_data [575:0] $end
$var reg 10 & s_packet [9:0] $end
$var reg 32 ' queue_kx $end
$var reg 32 ( idx [31:0] $end
$var reg 64 ) x_out [63:0] $end
$var reg 512 * k_out [511:0] $end
$var reg 64 + k_row_out [63:0] $end
$var reg 256 , exp_data [255:0] $end
$var reg 256 - m_data [255:0] $end
$var reg 8 . m_packet [7:0] $end
$var reg 32 / tx_bits [31:0] $end
$var reg 32 0 rx_bits [31:0] $end
$scope module dut $end
$var wire 1 1 clk $end
$var wire 1 2 rstn $end
$var wire 1 3 rx $end
$var wire 1 4 tx $end
$var reg 1 5 s_valid $end
$var reg 1 6 m_valid $end
$var reg 1 7 s_ready $end
$var reg 1 8 m_ready $end
$var reg 576 9 s_data_kx [575:0] $end
$var reg 152 : m_data_y [151:0] $end
$var reg 256 ; o_flat [255:0] $end
$scope module UART_RX $end
$var wire 1 1 clk $end
$var wire 1 2 rstn $end
$var wire 1 3 rx $end
$var reg 1 5 m_valid $end
$var reg 576 9 m_data [575:0] $end
$var reg 2 < c_clocks [1:0] $end
$var reg 3 = c_bits [2:0] $end
$var reg 7 > c_words [6:0] $end
$var reg 32 ? state $end
$upscope $end
$scope module AXIS_MVM $end
$var wire 1 1 clk $end
$var wire 1 2 rstn $end
$var wire 1 @ s_axis_kx_tready $end
$var wire 1 A s_axis_kx_tvalid $end
$var wire 576 B s_axis_kx_tdata [575:0] $end
$var wire 1 C m_axis_y_tready $end
$var wire 1 D m_axis_y_tvalid $end
$var wire 152 E m_axis_y_tdata [151:0] $end
$var reg 512 F k [511:0] $end
$var reg 64 G x [63:0] $end
$var reg 152 H i_data [151:0] $end
$var reg 1 I i_ready $end
$var reg 3 J shift [2:0] $end
$var reg 1 K i_valid $end
$scope module MATVEC $end
$var wire 1 1 clk $end
$var wire 1 L cen $end
$var wire 512 M k [511:0] $end
$var wire 64 N x [63:0] $end
$var reg 152 H y [151:0] $end
$var wire 64 O x_pad [63:0] $end
$var wire 512 P k_pad [511:0] $end
$upscope $end
$scope module SKID $end
$var wire 1 1 clk $end
$var wire 1 2 rstn $end
$var wire 1 Q s_valid $end
$var wire 1 C m_ready $end
$var wire 152 R s_data [151:0] $end
$var reg 152 S m_data [151:0] $end
$var reg 1 T m_valid $end
$var reg 1 I s_ready $end
$var reg 32 U state $end
$var reg 32 V state_next $end
$var reg 1 W b_valid $end
$var reg 152 X b_data [151:0] $end
$var wire 152 Y m_data_next [151:0] $end
$var wire 1 Z m_valid_next $end
$var wire 1 [ buffer_en $end
$var wire 1 \ m_en $end
$upscope $end
$upscope $end
$scope module UART_TX $end
$var wire 1 1 clk $end
$var wire 1 2 rstn $end
$var wire 1 ] s_valid $end
$var wire 256 ^ s_data [255:0] $end
$var reg 1 _ tx $end
$var reg 1 8 s_ready $end
$var reg 416 ` s_packets [415:0] $end
$var reg 416 a m_packets [415:0] $end
$var reg 9 b c_pulses [8:0] $end
$var reg 2 c c_clocks [1:0] $end
$var reg 32 d state $end
$upscope $end
$upscope $end
$scope begin Block55_129 $end
$var reg 32 e c [31:0] $end
$upscope $end
$scope begin Block58_130 $end
$var reg 32 f r [31:0] $end
$scope begin Block59_131 $end
$var reg 32 g c [31:0] $end
$upscope $end
$upscope $end
$scope begin Block65_132 $end
$var reg 32 h iw [31:0] $end
$scope begin Block70_133 $end
$var reg 32 i ib [31:0] $end
$upscope $end
$upscope $end
$scope begin Block92_135 $end
$var reg 32 j iw [31:0] $end
$scope begin Block97_136 $end
$var reg 32 k ib [31:0] $end
$upscope $end
$scope begin Block103_137 $end
$var reg 32 l ib [31:0] $end
$upscope $end
$upscope $end
$scope begin Block113_138 $end
$var reg 32 m r [31:0] $end
$scope begin Block114_139 $end
$var reg 32 n c [31:0] $end
$upscope $end
$upscope $end
$scope begin Block133_141 $end
$var reg 32 o n [31:0] $end
$upscope $end
$scope begin Block141_143 $end
$var reg 32 p n [31:0] $end
$upscope $end
$upscope $end
$enddefinitions $end

#0
$dumpvars
0!
0"
1#
1$
bx %
bx &
b100001110011110000000000011000 '
b0 (
bx )
bx *
bx +
bx ,
bx -
bx .
b0 /
b0 0
01
02
13
14
05
x6
x7
18
b0 9
bx :
bx ;
b0 <
b0 =
b0 >
b0 ?
x@
0A
b0 B
1C
xD
bx E
b0 F
b0 G
bx H
xI
b0 J
0K
xL
b0 M
b0 N
b0 O
b0 P
0Q
bx R
bx S
xT
b0 U
b1 V
xW
bx X
bx Y
xZ
0[
x\
x]
bx ^
1_
b1111xxxxxxxx01111xxxxxxxx01111xxxxxxxx01111xxxxxxxx01111xxxxxxxx01111xxxxxxxx01111xxxxxxxx01111xxxxxxxx01111xxxxxxxx01111xxxxxxxx01111xxxxxxxx01111xxxxxxxx01111xxxxxxxx01111xxxxxxxx01111xxxxxxxx01111xxxxxxxx01111xxxxxxxx01111xxxxxxxx01111xxxxxxxx01111xxxxxxxx01111xxxxxxxx01111xxxxxxxx01111xxxxxxxx01111xxxxxxxx01111xxxxxxxx01111xxxxxxxx01111xxxxxxxx01111xxxxxxxx01111xxxxxxxx01111xxxxxxxx01111xxxxxxxx01111xxxxxxxx0 `
b11111111111111111111111111111111111111111111111111111111111111111111111111111111111111111111111111111111111111111111111111111111111111111111111111111111111111111111111111111111111111111111111111111111111111111111111111111111111111111111111111111111111111111111111111111111111111111111111111111111111111111111111111111111111111111111111111111111111111111111111111111111111111111111111111111111111111111111111111111111 a
b0 b
b0 c
b0 d
b0 e
b0 f
b0 g
b0 h
b0 i
b0 j
b0 k
b0 l
b0 m
b0 n
b0 o
b0 p
$end

#5000
1!
11
06
17
1@
0D
1I
1L
0T
b1 U
0W
0Z
0\
0]

#10000
0!
01

#15000
1!
11

#16000
1"
b1010000011100000110000011000001100100100101001011100011111000001011000000100000000100001111001111010100100001010001010111110000000100000011000001010000011100001011000101110010001100101111000001010000011100001000000000100001111100110101010010110110000100000010000001000000011100001110000101100001111100110001001111110001001100001100001111010010110100111101010010000001001000001111001010010011010100011001000110110001111101001001001000110100001100000111000000110000100100001000001001010011011101001000011000000000110100001100000010110000101000000011000000100000000100000001 %
b1000000010 &
b1001000 (
12
b1000 e
b1000 f
b1000 g

#20000
0!
01

#25000
1!
11

#30000
0!
01

#35000
1!
11

#40000
0!
01

#45000
1!
11
b0 H
b0 R
b0 Y

#50000
0!
01

#55000
1!
11

#60000
0!
01

#65000
1!
11

#70000
0!
01

#75000
1!
11

#80000
0!
01

#85000
1!
11

#90000
0!
01

#95000
1!
11

#100000
0!
01

#105000
1!
11

#110000
0!
01

#115000
1!
11

#116000
0#
b1 0
03

#120000
0!
01

#125000
1!
11
b1 ?

#130000
0!
01

#135000
1!
11
b1 <

#140000
0!
01

#145000
1!
11
b0 <
b10 ?

#150000
0!
01

#155000
1!
b10 0
11
b1 <
b1 i
b1 p

#156000
1#
13

#160000
0!
01

#165000
1!
11
b10 <

#170000
0!
01

#175000
1!
11
b11 <

#180000
0!
01

#185000
1!
11
b100000000000000000000000000000000000000000000000000000000000000000000000000000000000000000000000000000000000000000000000000000000000000000000000000000000000000000000000000000000000000000000000000000000000000000000000000000000000000000000000000000000000000000000000000000000000000000000000000000000000000000000000000000000000000000000000000000000000000000000000000000000000000000000000000000000000000000000000000000000000000000000000000000000000000000000000000000000000000000000000000000000000000000000000000000000000000000000000000000000000000000000000000000000000000000000000 9
b0 <
b1 =
b100000000000000000000000000000000000000000000000000000000000000000000000000000000000000000000000000000000000000000000000000000000000000000000000000000000000000000000000000000000000000000000000000000000000000000000000000000000000000000000000000000000000000000000000000000000000000000000000000000000000000000000000000000000000000000000000000000000000000000000000000000000000000000000000000000000000000000000000000000000000000000000000000000000000000000000000000000000000000000000000000000000000000000000000000000000000000000000000000000000000000000000000000000000000000000000000 B
b10000000000000000000000000000000000000000000000000000000000000000000000000000000000000000000000000000000000000000000000000000000000000000000000000000000000000000000000000000000000000000000000000000000000000000000000000000000000000000000000000000000000000000000000000000000000000000000000000000000000000000000000000000000000000000000000000000000000000000000000000000000000000000000000000000000000000000000000000000000000000000000000000000000000000000000000000000000000000000000000000000000000000000000000000000000 F
b10000000000000000000000000000000000000000000000000000000000000000000000000000000000000000000000000000000000000000000000000000000000000000000000000000000000000000000000000000000000000000000000000000000000000000000000000000000000000000000000000000000000000000000000000000000000000000000000000000000000000000000000000000000000000000000000000000000000000000000000000000000000000000000000000000000000000000000000000000000000000000000000000000000000000000000000000000000000000000000000000000000000000000000000000000000 M
b10000000000000000000000000000000000000000000000000000000000000000000000000000000000000000000000000000000000000000000000000000000000000000000000000000000000000000000000000000000000000000000000000000000000000000000000000000000000000000000000000000000000000000000000000000000000000000000000000000000000000000000000000000000000000000000000000000000000000000000000000000000000000000000000000000000000000000000000000000000000000000000000000000000000000000000000000000000000000000000000000000000000000000000000000000000 P

#190000
0!
01

#195000
1!
b11 0
11
b1 <
b10 i
b10 p

#196000
0#
03

#200000
0!
01

#205000
1!
11
b10 <

#210000
0!
01

#215000
1!
11
b11 <

#220000
0!
01

#225000
1!
11
b10000000000000000000000000000000000000000000000000000000000000000000000000000000000000000000000000000000000000000000000000000000000000000000000000000000000000000000000000000000000000000000000000000000000000000000000000000000000000000000000000000000000000000000000000000000000000000000000000000000000000000000000000000000000000000000000000000000000000000000000000000000000000000000000000000000000000000000000000000000000000000000000000000000000000000000000000000000000000000000000000000000000000000000000000000000000000000000000000000000000000000000000000000000000000000000000 9
b0 <
b10 =
b10000000000000000000000000000000000000000000000000000000000000000000000000000000000000000000000000000000000000000000000000000000000000000000000000000000000000000000000000000000000000000000000000000000000000000000000000000000000000000000000000000000000000000000000000000000000000000000000000000000000000000000000000000000000000000000000000000000000000000000000000000000000000000000000000000000000000000000000000000000000000000000000000000000000000000000000000000000000000000000000000000000000000000000000000000000000000000000000000000000000000000000000000000000000000000000000 B
b1000000000000000000000000000000000000000000000000000000000000000000000000000000000000000000000000000000000000000000000000000000000000000000000000000000000000000000000000000000000000000000000000000000000000000000000000000000000000000000000000000000000000000000000000000000000000000000000000000000000000000000000000000000000000000000000000000000000000000000000000000000000000000000000000000000000000000000000000000000000000000000000000000000000000000000000000000000000000000000000000000000000000000000000000000000 F
b1000000000000000000000000000000000000000000000000000000000000000000000000000000000000000000000000000000000000000000000000000000000000000000000000000000000000000000000000000000000000000000000000000000000000000000000000000000000000000000000000000000000000000000000000000000000000000000000000000000000000000000000000000000000000000000000000000000000000000000000000000000000000000000000000000000000000000000000000000000000000000000000000000000000000000000000000000000000000000000000000000000000000000000000000000000 M
b1000000000000000000000000000000000000000000000000000000000000000000000000000000000000000000000000000000000000000000000000000000000000000000000000000000000000000000000000000000000000000000000000000000000000000000000000000000000000000000000000000000000000000000000000000000000000000000000000000000000000000000000000000000000000000000000000000000000000000000000000000000000000000000000000000000000000000000000000000000000000000000000000000000000000000000000000000000000000000000000000000000000000000000000000000000 P

#230000
0!
01

#235000
1!
b100 0
11
b1 <
b11 i
b11 p

#240000
0!
01

#245000
1!
11
b10 <

#250000
0!
01

#255000
1!
11
b11 <

#260000
0!
01

#265000
1!
11
b1000000000000000000000000000000000000000000000000000000000000000000000000000000000000000000000000000000000000000000000000000000000000000000000000000000000000000000000000000000000000000000000000000000000000000000000000000000000000000000000000000000000000000000000000000000000000000000000000000000000000000000000000000000000000000000000000000000000000000000000000000000000000000000000000000000000000000000000000000000000000000000000000000000000000000000000000000000000000000000000000000000000000000000000000000000000000000000000000000000000000000000000000000000000000000000000 9
b0 <
b11 =
b1000000000000000000000000000000000000000000000000000000000000000000000000000000000000000000000000000000000000000000000000000000000000000000000000000000000000000000000000000000000000000000000000000000000000000000000000000000000000000000000000000000000000000000000000000000000000000000000000000000000000000000000000000000000000000000000000000000000000000000000000000000000000000000000000000000000000000000000000000000000000000000000000000000000000000000000000000000000000000000000000000000000000000000000000000000000000000000000000000000000000000000000000000000000000000000000 B
b100000000000000000000000000000000000000000000000000000000000000000000000000000000000000000000000000000000000000000000000000000000000000000000000000000000000000000000000000000000000000000000000000000000000000000000000000000000000000000000000000000000000000000000000000000000000000000000000000000000000000000000000000000000000000000000000000000000000000000000000000000000000000000000000000000000000000000000000000000000000000000000000000000000000000000000000000000000000000000000000000000000000000000000000000000 F
b100000000000000000000000000000000000000000000000000000000000000000000000000000000000000000000000000000000000000000000000000000000000000000000000000000000000000000000000000000000000000000000000000000000000000000000000000000000000000000000000000000000000000000000000000000000000000000000000000000000000000000000000000000000000000000000000000000000000000000000000000000000000000000000000000000000000000000000000000000000000000000000000000000000000000000000000000000000000000000000000000000000000000000000000000000 M
b100000000000000000000000000000000000000000000000000000000000000000000000000000000000000000000000000000000000000000000000000000000000000000000000000000000000000000000000000000000000000000000000000000000000000000000000000000000000000000000000000000000000000000000000000000000000000000000000000000000000000000000000000000000000000000000000000000000000000000000000000000000000000000000000000000000000000000000000000000000000000000000000000000000000000000000000000000000000000000000000000000000000000000000000000000 P

#270000
0!
01

#275000
1!
b101 0
11
b1 <
b100 i
b100 p

#280000
0!
01

#285000
1!
11
b10 <

#290000
0!
01

#295000
1!
11
b11 <

#300000
0!
01

#305000
1!
11
b100000000000000000000000000000000000000000000000000000000000000000000000000000000000000000000000000000000000000000000000000000000000000000000000000000000000000000000000000000000000000000000000000000000000000000000000000000000000000000000000000000000000000000000000000000000000000000000000000000000000000000000000000000000000000000000000000000000000000000000000000000000000000000000000000000000000000000000000000000000000000000000000000000000000000000000000000000000000000000000000000000000000000000000000000000000000000000000000000000000000000000000000000000000000000000000 9
b0 <
b100 =
b100000000000000000000000000000000000000000000000000000000000000000000000000000000000000000000000000000000000000000000000000000000000000000000000000000000000000000000000000000000000000000000000000000000000000000000000000000000000000000000000000000000000000000000000000000000000000000000000000000000000000000000000000000000000000000000000000000000000000000000000000000000000000000000000000000000000000000000000000000000000000000000000000000000000000000000000000000000000000000000000000000000000000000000000000000000000000000000000000000000000000000000000000000000000000000000 B
b10000000000000000000000000000000000000000000000000000000000000000000000000000000000000000000000000000000000000000000000000000000000000000000000000000000000000000000000000000000000000000000000000000000000000000000000000000000000000000000000000000000000000000000000000000000000000000000000000000000000000000000000000000000000000000000000000000000000000000000000000000000000000000000000000000000000000000000000000000000000000000000000000000000000000000000000000000000000000000000000000000000000000000000000000000 F
b10000000000000000000000000000000000000000000000000000000000000000000000000000000000000000000000000000000000000000000000000000000000000000000000000000000000000000000000000000000000000000000000000000000000000000000000000000000000000000000000000000000000000000000000000000000000000000000000000000000000000000000000000000000000000000000000000000000000000000000000000000000000000000000000000000000000000000000000000000000000000000000000000000000000000000000000000000000000000000000000000000000000000000000000000000 M
b10000000000000000000000000000000000000000000000000000000000000000000000000000000000000000000000000000000000000000000000000000000000000000000000000000000000000000000000000000000000000000000000000000000000000000000000000000000000000000000000000000000000000000000000000000000000000000000000000000000000000000000000000000000000000000000000000000000000000000000000000000000000000000000000000000000000000000000000000000000000000000000000000000000000000000000000000000000000000000000000000000000000000000000000000000 P

#310000
0!
01

#315000
1!
b110 0
11
b1 <
b101 i
b101 p

#320000
0!
01

#325000
1!
11
b10 <

#330000
0!
01

#335000
1!
11
b11 <

#340000
0!
01

#345000
1!
11
b10000000000000000000000000000000000000000000000000000000000000000000000000000000000000000000000000000000000000000000000000000000000000000000000000000000000000000000000000000000000000000000000000000000000000000000000000000000000000000000000000000000000000000000000000000000000000000000000000000000000000000000000000000000000000000000000000000000000000000000000000000000000000000000000000000000000000000000000000000000000000000000000000000000000000000000000000000000000000000000000000000000000000000000000000000000000000000000000000000000000000000000000000000000000000000000 9
b0 <
b101 =
b10000000000000000000000000000000000000000000000000000000000000000000000000000000000000000000000000000000000000000000000000000000000000000000000000000000000000000000000000000000000000000000000000000000000000000000000000000000000000000000000000000000000000000000000000000000000000000000000000000000000000000000000000000000000000000000000000000000000000000000000000000000000000000000000000000000000000000000000000000000000000000000000000000000000000000000000000000000000000000000000000000000000000000000000000000000000000000000000000000000000000000000000000000000000000000000 B
b1000000000000000000000000000000000000000000000000000000000000000000000000000000000000000000000000000000000000000000000000000000000000000000000000000000000000000000000000000000000000000000000000000000000000000000000000000000000000000000000000000000000000000000000000000000000000000000000000000000000000000000000000000000000000000000000000000000000000000000000000000000000000000000000000000000000000000000000000000000000000000000000000000000000000000000000000000000000000000000000000000000000000000000000000000 F
b1000000000000000000000000000000000000000000000000000000000000000000000000000000000000000000000000000000000000000000000000000000000000000000000000000000000000000000000000000000000000000000000000000000000000000000000000000000000000000000000000000000000000000000000000000000000000000000000000000000000000000000000000000000000000000000000000000000000000000000000000000000000000000000000000000000000000000000000000000000000000000000000000000000000000000000000000000000000000000000000000000000000000000000000000000 M
b1000000000000000000000000000000000000000000000000000000000000000000000000000000000000000000000000000000000000000000000000000000000000000000000000000000000000000000000000000000000000000000000000000000000000000000000000000000000000000000000000000000000000000000000000000000000000000000000000000000000000000000000000000000000000000000000000000000000000000000000000000000000000000000000000000000000000000000000000000000000000000000000000000000000000000000000000000000000000000000000000000000000000000000000000000 P

#350000
0!
01

#355000
1!
b111 0
11
b1 <
b110 i
b110 p

#360000
0!
01

#365000
1!
11
b10 <

#370000
0!
01

#375000
1!
11
b11 <

#380000
0!
01

#385000
1!
11
b1000000000000000000000000000000000000000000000000000000000000000000000000000000000000000000000000000000000000000000000000000000000000000000000000000000000000000000000000000000000000000000000000000000000000000000000000000000000000000000000000000000000000000000000000000000000000000000000000000000000000000000000000000000000000000000000000000000000000000000000000000000000000000000000000000000000000000000000000000000000000000000000000000000000000000000000000000000000000000000000000000000000000000000000000000000000000000000000000000000000000000000000000000000000000000000 9
b0 <
b110 =
b1000000000000000000000000000000000000000000000000000000000000000000000000000000000000000000000000000000000000000000000000000000000000000000000000000000000000000000000000000000000000000000000000000000000000000000000000000000000000000000000000000000000000000000000000000000000000000000000000000000000000000000000000000000000000000000000000000000000000000000000000000000000000000000000000000000000000000000000000000000000000000000000000000000000000000000000000000000000000000000000000000000000000000000000000000000000000000000000000000000000000000000000000000000000000000000 B
b100000000000000000000000000000000000000000000000000000000000000000000000000000000000000000000000000000000000000000000000000000000000000000000000000000000000000000000000000000000000000000000000000000000000000000000000000000000000000000000000000000000000000000000000000000000000000000000000000000000000000000000000000000000000000000000000000000000000000000000000000000000000000000000000000000000000000000000000000000000000000000000000000000000000000000000000000000000000000000000000000000000000000000000000000 F
b100000000000000000000000000000000000000000000000000000000000000000000000000000000000000000000000000000000000000000000000000000000000000000000000000000000000000000000000000000000000000000000000000000000000000000000000000000000000000000000000000000000000000000000000000000000000000000000000000000000000000000000000000000000000000000000000000000000000000000000000000000000000000000000000000000000000000000000000000000000000000000000000000000000000000000000000000000000000000000000000000000000000000000000000000 M
b100000000000000000000000000000000000000000000000000000000000000000000000000000000000000000000000000000000000000000000000000000000000000000000000000000000000000000000000000000000000000000000000000000000000000000000000000000000000000000000000000000000000000000000000000000000000000000000000000000000000000000000000000000000000000000000000000000000000000000000000000000000000000000000000000000000000000000000000000000000000000000000000000000000000000000000000000000000000000000000000000000000000000000000000000 P

#390000
0!
01

#395000
1!
b1000 0
11
b1 <
b111 i
b111 p

#400000
0!
01

#405000
1!
11
b10 <

#410000
0!
01

#415000
1!
11
b11 <

#420000
0!
01

#425000
1!
11
b100000000000000000000000000000000000000000000000000000000000000000000000000000000000000000000000000000000000000000000000000000000000000000000000000000000000000000000000000000000000000000000000000000000000000000000000000000000000000000000000000000000000000000000000000000000000000000000000000000000000000000000000000000000000000000000000000000000000000000000000000000000000000000000000000000000000000000000000000000000000000000000000000000000000000000000000000000000000000000000000000000000000000000000000000000000000000000000000000000000000000000000000000000000000000000 9
b0 <
b111 =
b100000000000000000000000000000000000000000000000000000000000000000000000000000000000000000000000000000000000000000000000000000000000000000000000000000000000000000000000000000000000000000000000000000000000000000000000000000000000000000000000000000000000000000000000000000000000000000000000000000000000000000000000000000000000000000000000000000000000000000000000000000000000000000000000000000000000000000000000000000000000000000000000000000000000000000000000000000000000000000000000000000000000000000000000000000000000000000000000000000000000000000000000000000000000000000 B
b10000000000000000000000000000000000000000000000000000000000000000000000000000000000000000000000000000000000000000000000000000000000000000000000000000000000000000000000000000000000000000000000000000000000000000000000000000000000000000000000000000000000000000000000000000000000000000000000000000000000000000000000000000000000000000000000000000000000000000000000000000000000000000000000000000000000000000000000000000000000000000000000000000000000000000000000000000000000000000000000000000000000000000000000000 F
b10000000000000000000000000000000000000000000000000000000000000000000000000000000000000000000000000000000000000000000000000000000000000000000000000000000000000000000000000000000000000000000000000000000000000000000000000000000000000000000000000000000000000000000000000000000000000000000000000000000000000000000000000000000000000000000000000000000000000000000000000000000000000000000000000000000000000000000000000000000000000000000000000000000000000000000000000000000000000000000000000000000000000000000000000 M
b10000000000000000000000000000000000000000000000000000000000000000000000000000000000000000000000000000000000000000000000000000000000000000000000000000000000000000000000000000000000000000000000000000000000000000000000000000000000000000000000000000000000000000000000000000000000000000000000000000000000000000000000000000000000000000000000000000000000000000000000000000000000000000000000000000000000000000000000000000000000000000000000000000000000000000000000000000000000000000000000000000000000000000000000000 P

#430000
0!
01

#435000
1!
b1001 0
11
b1 <
b1000 i
b1000 p

#440000
0!
01

#445000
1!
11
b10 <

#450000
0!
01

#455000
1!
11
b11 <

#460000
0!
01

#465000
1!
11
b10000000000000000000000000000000000000000000000000000000000000000000000000000000000000000000000000000000000000000000000000000000000000000000000000000000000000000000000000000000000000000000000000000000000000000000000000000000000000000000000000000000000000000000000000000000000000000000000000000000000000000000000000000000000000000000000000000000000000000000000000000000000000000000000000000000000000000000000000000000000000000000000000000000000000000000000000000000000000000000000000000000000000000000000000000000000000000000000000000000000000000000000000000000000000000 9
b0 <
b0 =
b1 >
b11 ?
b10000000000000000000000000000000000000000000000000000000000000000000000000000000000000000000000000000000000000000000000000000000000000000000000000000000000000000000000000000000000000000000000000000000000000000000000000000000000000000000000000000000000000000000000000000000000000000000000000000000000000000000000000000000000000000000000000000000000000000000000000000000000000000000000000000000000000000000000000000000000000000000000000000000000000000000000000000000000000000000000000000000000000000000000000000000000000000000000000000000000000000000000000000000000000000 B
b1000000000000000000000000000000000000000000000000000000000000000000000000000000000000000000000000000000000000000000000000000000000000000000000000000000000000000000000000000000000000000000000000000000000000000000000000000000000000000000000000000000000000000000000000000000000000000000000000000000000000000000000000000000000000000000000000000000000000000000000000000000000000000000000000000000000000000000000000000000000000000000000000000000000000000000000000000000000000000000000000000000000000000000000000 F
b1000000000000000000000000000000000000000000000000000000000000000000000000000000000000000000000000000000000000000000000000000000000000000000000000000000000000000000000000000000000000000000000000000000000000000000000000000000000000000000000000000000000000000000000000000000000000000000000000000000000000000000000000000000000000000000000000000000000000000000000000000000000000000000000000000000000000000000000000000000000000000000000000000000000000000000000000000000000000000000000000000000000000000000000000 M
b1000000000000000000000000000000000000000000000000000000000000000000000000000000000000000000000000000000000000000000000000000000000000000000000000000000000000000000000000000000000000000000000000000000000000000000000000000000000000000000000000000000000000000000000000000000000000000000000000000000000000000000000000000000000000000000000000000000000000000000000000000000000000000000000000000000000000000000000000000000000000000000000000000000000000000000000000000000000000000000000000000000000000000000000000 P

#470000
0!
01

#475000
1!
b1010 0
11
b1 <
b1001 i
b1001 p

#476000
1#
13

#480000
0!
01

#485000
1!
11
b10 <

#490000
0!
01

#495000
1!
11
b11 <

#500000
0!
01

#505000
1!
11
b0 <
b0 ?

#510000
0!
01

#515000
1!
b0 0
11
b1 h
b1010 i
b1010 p

#520000
0!
01

#525000
1!
11

#530000
0!
01

#535000
1!
11

#540000
0!
01

#545000
1!
11

#550000
0!
01

#555000
1!
11

#560000
0!
01

#565000
1!
11

#570000
0!
01

#575000
1!
11

#580000
0!
01

#585000
1!
11

#590000
0!
01

#595000
1!
11

#600000
0!
01

#605000
1!
11

#610000
0!
01

#615000
1!
11

#620000
0!
01

#625000
1!
11
b0 i

#626000
0#
b1 0
03
b0 p

#630000
0!
01

#635000
1!
11
b1 ?

#640000
0!
01

#645000
1!
11
b1 <

#650000
0!
01

#655000
1!
11
b0 <
b10 ?

#660000
0!
01

#665000
1!
b10 0
11
b1 <
b1 i
b1 p

#666000
1#
13

#670000
0!
01

#675000
1!
11
b10 <

#680000
0!
01

#685000
1!
11
b11 <

#690000
0!
01

#695000
1!
11
b100000001000000000000000000000000000000000000000000000000000000000000000000000000000000000000000000000000000000000000000000000000000000000000000000000000000000000000000000000000000000000000000000000000000000000000000000000000000000000000000000000000000000000000000000000000000000000000000000000000000000000000000000000000000000000000000000000000000000000000000000000000000000000000000000000000000000000000000000000000000000000000000000000000000000000000000000000000000000000000000000000000000000000000000000000000000000000000000000000000000000000000000000000000000000000000000 9
b0 <
b1 =
b100000001000000000000000000000000000000000000000000000000000000000000000000000000000000000000000000000000000000000000000000000000000000000000000000000000000000000000000000000000000000000000000000000000000000000000000000000000000000000000000000000000000000000000000000000000000000000000000000000000000000000000000000000000000000000000000000000000000000000000000000000000000000000000000000000000000000000000000000000000000000000000000000000000000000000000000000000000000000000000000000000000000000000000000000000000000000000000000000000000000000000000000000000000000000000000000 B
b10000000100000000000000000000000000000000000000000000000000000000000000000000000000000000000000000000000000000000000000000000000000000000000000000000000000000000000000000000000000000000000000000000000000000000000000000000000000000000000000000000000000000000000000000000000000000000000000000000000000000000000000000000000000000000000000000000000000000000000000000000000000000000000000000000000000000000000000000000000000000000000000000000000000000000000000000000000000000000000000000000000000000000000000000000000 F
b10000000100000000000000000000000000000000000000000000000000000000000000000000000000000000000000000000000000000000000000000000000000000000000000000000000000000000000000000000000000000000000000000000000000000000000000000000000000000000000000000000000000000000000000000000000000000000000000000000000000000000000000000000000000000000000000000000000000000000000000000000000000000000000000000000000000000000000000000000000000000000000000000000000000000000000000000000000000000000000000000000000000000000000000000000000 M
b10000000100000000000000000000000000000000000000000000000000000000000000000000000000000000000000000000000000000000000000000000000000000000000000000000000000000000000000000000000000000000000000000000000000000000000000000000000000000000000000000000000000000000000000000000000000000000000000000000000000000000000000000000000000000000000000000000000000000000000000000000000000000000000000000000000000000000000000000000000000000000000000000000000000000000000000000000000000000000000000000000000000000000000000000000000 P

#700000
0!
01

#705000
1!
b11 0
11
b1 <
b10 i
b10 p

#706000
0#
03

#710000
0!
01

#715000
1!
11
b10 <

#720000
0!
01

#725000
1!
11
b11 <

#730000
0!
01

#735000
1!
11
b10000000100000000000000000000000000000000000000000000000000000000000000000000000000000000000000000000000000000000000000000000000000000000000000000000000000000000000000000000000000000000000000000000000000000000000000000000000000000000000000000000000000000000000000000000000000000000000000000000000000000000000000000000000000000000000000000000000000000000000000000000000000000000000000000000000000000000000000000000000000000000000000000000000000000000000000000000000000000000000000000000000000000000000000000000000000000000000000000000000000000000000000000000000000000000000000 9
b0 <
b10 =
b10000000100000000000000000000000000000000000000000000000000000000000000000000000000000000000000000000000000000000000000000000000000000000000000000000000000000000000000000000000000000000000000000000000000000000000000000000000000000000000000000000000000000000000000000000000000000000000000000000000000000000000000000000000000000000000000000000000000000000000000000000000000000000000000000000000000000000000000000000000000000000000000000000000000000000000000000000000000000000000000000000000000000000000000000000000000000000000000000000000000000000000000000000000000000000000000 B
b1000000010000000000000000000000000000000000000000000000000000000000000000000000000000000000000000000000000000000000000000000000000000000000000000000000000000000000000000000000000000000000000000000000000000000000000000000000000000000000000000000000000000000000000000000000000000000000000000000000000000000000000000000000000000000000000000000000000000000000000000000000000000000000000000000000000000000000000000000000000000000000000000000000000000000000000000000000000000000000000000000000000000000000000000000000 F
b1000000010000000000000000000000000000000000000000000000000000000000000000000000000000000000000000000000000000000000000000000000000000000000000000000000000000000000000000000000000000000000000000000000000000000000000000000000000000000000000000000000000000000000000000000000000000000000000000000000000000000000000000000000000000000000000000000000000000000000000000000000000000000000000000000000000000000000000000000000000000000000000000000000000000000000000000000000000000000000000000000000000000000000000000000000 M
b1000000010000000000000000000000000000000000000000000000000000000000000000000000000000000000000000000000000000000000000000000000000000000000000000000000000000000000000000000000000000000000000000000000000000000000000000000000000000000000000000000000000000000000000000000000000000000000000000000000000000000000000000000000000000000000000000000000000000000000000000000000000000000000000000000000000000000000000000000000000000000000000000000000000000000000000000000000000000000000000000000000000000000000000000000000 P

#740000
0!
01

#745000
1!
b100 0
11
b1 <
b11 i
b11 p

#750000
0!
01

#755000
1!
11
b10 <

#760000
0!
01

#765000
1!
11
b11 <

#770000
0!
01

